{
  "name": "<%= slugify(appname) %>",
  "version": "0.0.1",
  "ignore": [
    "**/.*",
    "node_modules",
    "bower_components",
    "test",
    "tests"
  ],
  "dependencies": {
<% if(legacyBootstrap == 'Bootstrap 4'){ %>
    "bootstrap": "~4.0.0-beta",
    "popper.js": "~1.12.9",
    "bootstrap-datepicker": "~1.7.1",
    "datatables.net": "^1.10.16",
    "datatables.net-bs4": "^3.2.2",
<% }if(legacyBootstrap == 'Bootstrap 3'){ %>
    "bootstrap": "~3.3.5",
    "bootstrap-datepicker": "~1.7.1",
    "datatables.net-bs4": "^2.1.1",
<% if(cssPreprocessor == 'sass'){ %>
    "bootstrap-sass": "~3.3.5",
<% } } if(includeJQuery){   %>
    "jquery": "~3.2.1" <% } %>,
    "modernizr": "~2.8.1",
<% if(includeHighCharts){   %>
    "highcharts": "~6.0.2",
<% } if(includeFontAwesome ){ %>
    "font-awesome": "~4.7.0" <% } %>
  }
}
