{
  "name":    "<%= slugify(appname) %>",
  "version": "0.0.1",
  "private": true,
  "main":    "app.js",
  "scripts": {
    "start": "node ./bin/www",
    "test":  "mocha --recursive test"
  },
  "dependencies": {
    "body-parser":            "^1.18.2",
    "cookie-parser":          "^1.4.3",
    "compress":               "0.99.0",
    "compression":            "^1.5.2",
    "connect-flash":          "^0.1.1",
    "del":                    "^3.0.0",
    "dotenv":                 "^4.0.0",
    "ejs":                    "^2.5.7",
    "sequelize":              "^3.5.1",
    "express":                "^4.16.2",
    "express-session":        "^1.15.6",
    "express-status-monitor": "^1.0.1",
    "express-validator":      "^4.3.0"  <%   if(database   == 'mongodb'){ %>,
    "mongoose":               "^4.1.2"  <% } if(database   == 'mysql'){ %>,
    "mysql":                  "^2.8.0"  <% } if(database   == 'oracle'){ %>,
    "oracledb":               "^1.13.1" <% } if(viewEngine == 'pug'){ %>,
    "pug":                    "2.0.0-rc.4",
    "jade":                   "^1.11.0" <% } if(viewEngine == 'ejs'){ %>,
    "ejs":                    "^2.5.7"  <% } if(viewEngine == 'handlebars'){ %>,
    "hbs":                    "4.0.1"   <% } %>,
    "os":                     "0.1.1",
    "glob":                   "^6.0.4",
    "helmet":                 "^3.9.0",
    "method-override":        "^2.3.10",
    "morgan":                 "^1.9.0",
    "serve-favicon":          "^2.4.5",
    "request":                "^2.83.0"
  },
  "devDependencies": {
    "browser-sync":           "^2.18.13",
    "chalk":                  "^2.3.0",
    "require-dir":            "^0.3.2" <% if(buildTool == 'gulp'){ -%>,
    "gulp":                   "^3.9.1",
    "gulp-autoprefixer":      "^4.0.0",
    "gulp-clean-css":         "3.9.2",
    "gulp-cache":             "^1.0.1",
    "gulp-csso":              "^3.0.0",
    "gulp-declare":           "^0.3.0",
    "gulp-filter":            "^1.0.2",
    "gulp-flatten":           "^0.0.4",
    "gulp-header":            "^1.8.9",
    "gulp-if":                "^2.0.2",
    "gulp-imagemin":          "^4.0.0",
    "gulp-sourcemaps":        "^2.6.3",
    "gulp-jshint":            "^2.0.4",
    "gulp-livereload":        "^3.8.1",
    "gulp-load-plugins":      "^1.5.0",
    "gulp-htmlmin":           "^3.0.0",
    "gulp-nodemon":           "^2.2.1",
    "gulp-notify":            "^3.0.0",
    "gulp-plumber":           "^1.1.0",
    "gulp-rename":            "^1.2.2" <%  if(cssPreprocessor == 'sass'){ -%>,
    "gulp-sass":              "^3.1.0" <% }if(cssPreprocessor == 'less'){ -%>,
    "gulp-less":              "^3.0.1" <% }if(cssPreprocessor == 'stylus'){ -%>,
    "gulp-stylus":            "^2.0.0" <% } %>,
    "gulp-size":              "^2.1.0",
    "gulp-uglify":            "^3.0.0" <% } if(buildTool == 'grunt'){ %>,
    "grunt":                  "^1.0.1",
    "grunt-develop":          "^0.4.0" <% if(cssPreprocessor == 'sass'){ -%>,
    "grunt-sass":             "^2.0.0"  <% } if(cssPreprocessor == 'less'){ -%>,
    "grunt-contrib-less":     "^1.0.0" <% } if(cssPreprocessor == 'stylus'){ -%>,
    "grunt-contrib-stylus":   "^1.0.0" <% } %>,
    "grunt-contrib-watch":    "^1.0.0" <% } -%>,
    "jpegtran-bin":           "^3.2.0",
    "mocha":                  "^4.0.1",
    "optipng-bin":            "4.0.0",
    "request":                "^2.60.0",
    "time-grunt":             "^1.2.1",
    "load-grunt-tasks":       "^3.2.0",
    "main-bower-files":       "^2.13.1",
    "moment":                 "^2.19.2",
    "supertest":              "^2.0.0"
  }
}
